﻿{
  "profiles": {
    "Otus.Teaching.PromocodeFactory.WebHost": {
      "commandName": "Project",
      "launchUrl": "swagger/index.html",
      "launchBrowser": true,
      //"applicationUrl": "https://localhost:5091;http://localhost:7091",
      "applicationUrl": "http://localhost:8091",
      "environmentVariables": {
        "ASPNETCORE_ENVIRONMENT": "Development"
      }
    }
  }
}
